<?xml version="1.0" encoding="utf-8"?>
<!-- Generator: Adobe Illustrator 23.0.1, SVG Export Plug-In . SVG Version: 6.00 Build 0)  -->
<svg version="1.1" id="Layer_1" xmlns="http://www.w3.org/2000/svg" xmlns:xlink="http://www.w3.org/1999/xlink" x="0px" y="0px"
	 viewBox="0 0 50 50" style="enable-background:new 0 0 50 50;" xml:space="preserve">
<g>
	<path d="M40.2,7.1H9.7c-1.4,0-2.5,1.1-2.5,2.5v30.5c0,1.4,1.1,2.5,2.5,2.5h30.5c1.4,0,2.5-1.1,2.5-2.5V9.6
		C42.7,8.2,41.6,7.1,40.2,7.1z M9.5,9.6c0-0.1,0.1-0.2,0.2-0.2h30.5c0.1,0,0.2,0.1,0.2,0.2v6.4h-31V9.6z M40.4,40.2
		c0,0.1-0.1,0.2-0.2,0.2H9.7c-0.1,0-0.2-0.1-0.2-0.2V18.4h31L40.4,40.2L40.4,40.2z"/>
	<circle cx="13.1" cy="12.7" r="2"/>
	<path d="M20.3,30.5h3.6v3.6c0,0.6,0.5,1.2,1.2,1.2s1.2-0.5,1.2-1.2v-3.6h3.6c0.6,0,1.2-0.5,1.2-1.2s-0.5-1.2-1.2-1.2h-3.6v-3.6
		c0-0.6-0.5-1.2-1.2-1.2s-1.2,0.5-1.2,1.2v3.6h-3.6c-0.6,0-1.2,0.5-1.2,1.2S19.6,30.5,20.3,30.5z"/>
</g>
</svg>
