<?xml version="1.0" encoding="utf-8"?>
<!-- Generator: Adobe Illustrator 23.0.1, SVG Export Plug-In . SVG Version: 6.00 Build 0)  -->
<svg version="1.1" id="Layer_1" xmlns="http://www.w3.org/2000/svg" xmlns:xlink="http://www.w3.org/1999/xlink" x="0px" y="0px"
	 viewBox="0 0 50 50" style="enable-background:new 0 0 50 50;" xml:space="preserve">
<g>
	<path d="M39.2,43.9h-28c-2.5,0-4.5-2-4.5-4.5v-28c0-2.5,2-4.5,4.5-4.5h28c2.5,0,4.5,2,4.5,4.5v28C43.7,41.9,41.7,43.9,39.2,43.9z
		 M11.2,9.9c-0.8,0-1.5,0.7-1.5,1.5v28c0,0.8,0.7,1.5,1.5,1.5h28c0.8,0,1.5-0.7,1.5-1.5v-28c0-0.8-0.7-1.5-1.5-1.5H11.2z"/>
	<polygon points="22.2,30.7 22.2,21.2 29.3,25.9 	"/>
</g>
</svg>
