<?xml version="1.0" encoding="utf-8"?>
<!-- Generator: Adobe Illustrator 23.0.1, SVG Export Plug-In . SVG Version: 6.00 Build 0)  -->
<svg version="1.1" id="Layer_1" xmlns="http://www.w3.org/2000/svg" xmlns:xlink="http://www.w3.org/1999/xlink" x="0px" y="0px"
	 viewBox="0 0 50 50" style="enable-background:new 0 0 50 50;" xml:space="preserve">
<g>
	<path d="M20,16.6h3.5v17.6H20v-7h-7v7H9.4V16.6h3.5v7h7V16.6z"/>
	<path d="M34.1,27.2v-3.5h3.5v-3.5H27v-3.5h14.1v17.6H27v-3.5h10.6v-3.5H34.1z"/>
</g>
</svg>
