<?xml version="1.0" encoding="utf-8"?>
<!-- Generator: Adobe Illustrator 23.0.1, SVG Export Plug-In . SVG Version: 6.00 Build 0)  -->
<svg version="1.1" id="Layer_1" xmlns="http://www.w3.org/2000/svg" xmlns:xlink="http://www.w3.org/1999/xlink" x="0px" y="0px"
	 viewBox="0 0 50 50" style="enable-background:new 0 0 50 50;" xml:space="preserve">
<g>
	<path d="M20.8,21.4h-8.3v-2.8h11.1v13.8h-2.8V21.4z"/>
	<path d="M34.7,27h-8.3v-8.3h11.1v2.8h-8.3v2.8h8.3v8.3H26.4v-2.8h8.3V27z"/>
</g>
</svg>
