<?xml version="1.0" encoding="utf-8"?>
<!-- Generator: Adobe Illustrator 23.0.1, SVG Export Plug-In . SVG Version: 6.00 Build 0)  -->
<svg version="1.1" id="Layer_1" xmlns="http://www.w3.org/2000/svg" xmlns:xlink="http://www.w3.org/1999/xlink" x="0px" y="0px"
	 viewBox="0 0 50 50" style="enable-background:new 0 0 50 50;" xml:space="preserve">
<g>
	<path d="M39.3,39.7H11.2c-2.5,0-4.5-2-4.5-4.5V15.6c0-2.5,2-4.5,4.5-4.5h28.1c2.5,0,4.5,2,4.5,4.5v19.6
		C43.8,37.7,41.8,39.7,39.3,39.7z M11.2,14.1c-0.8,0-1.5,0.7-1.5,1.5v19.6c0,0.8,0.7,1.5,1.5,1.5h28.1c0.8,0,1.5-0.7,1.5-1.5V15.6
		c0-0.8-0.7-1.5-1.5-1.5H11.2z"/>
	<polygon points="22.4,30.4 22.4,21 29.4,25.7 	"/>
</g>
</svg>
