<svg width="43" height="34" viewBox="0 0 43 34" xmlns="http://www.w3.org/2000/svg">
<rect x="17" width="26" height="34" />
<rect y="3" width="14" height="2.11111" />
<rect y="7.22217" width="14" height="2.11111" />
<rect y="15.6666" width="14" height="2.11111" />
<rect y="24" width="14" height="2.11111" />
<rect y="11.4445" width="14" height="2.11111" />
<rect y="19.8889" width="14" height="2.11111" />
<rect y="28.2223" width="14" height="2.11111" />
</svg>
