<svg width="35" height="34" viewBox="0 0 35 34"  xmlns="http://www.w3.org/2000/svg">
<rect width="10.5814" height="15.7855" />
<rect x="12.2093" width="10.5814" height="15.7855" />
<rect x="24.4186" width="10.5814" height="15.7855" />
<rect y="18.2145" width="10.5814" height="15.7855" />
<rect x="12.2094" y="18.2145" width="10.5814" height="15.7855" />
<rect x="24.4186" y="18.2145" width="10.5814" height="15.7855" />
</svg>
