<?xml version="1.0" encoding="utf-8"?>
<!-- Generator: Adobe Illustrator 23.0.1, SVG Export Plug-In . SVG Version: 6.00 Build 0)  -->
<svg version="1.1" id="Layer_1" xmlns="http://www.w3.org/2000/svg" xmlns:xlink="http://www.w3.org/1999/xlink" x="0px" y="0px"
	 viewBox="0 0 35 35" style="enable-background:new 0 0 35 35;" xml:space="preserve">
<g>
	<g>
		<path d="M30.4,4.3H4.6C3.7,4.3,2.9,5.1,2.9,6v17c0,0.9,0.8,1.7,1.7,1.7H13V29H8.4c-0.5,0-0.9,0.4-0.9,0.9s0.4,0.9,0.9,0.9h18.3
			c0.5,0,0.9-0.4,0.9-0.9S27.1,29,26.6,29H22v-4.2h8.4c0.9,0,1.7-0.8,1.7-1.7V6C32.1,5.1,31.3,4.3,30.4,4.3z M20.3,29h-5.6v-4.2h5.6
			V29z M30.4,23c-0.8,0-25.2,0-25.8,0V6h25.8C30.4,23.4,30.4,23,30.4,23z"/>
	</g>
	<rect x="5.5" y="11.8" width="3.2" height="5.4"/>
	<rect x="9.7" y="11.8" width="3.2" height="5.4"/>
	<rect x="13.8" y="11.8" width="3.2" height="5.4"/>
	<rect x="18" y="11.8" width="3.2" height="5.4"/>
	<rect x="22.1" y="11.8" width="3.2" height="5.4"/>
	<rect x="26.3" y="11.8" width="3.2" height="5.4"/>
</g>
</svg>
